<?xml version="1.0" encoding="UTF-8"?>
<svg width="25px" height="25px" viewBox="0 0 25 25" version="1.1" xmlns="http://www.w3.org/2000/svg" xmlns:xlink="http://www.w3.org/1999/xlink">
    <!-- Generator: sketchtool 47 (45396) - http://www.bohemiancoding.com/sketch -->
    <title>68606E67-DAC1-48C8-AA36-26A18F1B40B8</title>
    <desc>Created with sketchtool.</desc>
    <defs>
        <circle id="path-1" cx="12.5" cy="12.5" r="12.5"></circle>
        <rect id="path-2" x="12" y="4" width="1" height="9"></rect>
        <rect id="path-3" x="5.97307621" y="13.3995191" width="8" height="1.5"></rect>
    </defs>
    <g id="Page-1" stroke="none" stroke-width="1" fill="none" fill-rule="evenodd">
        <g id="Series-Normal" transform="translate(-702.000000, -140.000000)">
            <g id="Group-8" transform="translate(702.000000, 123.000000)">
                <g id="Group-7" transform="translate(0.000000, 17.000000)">
                    <g id="Oval">
                        <use fill="#FFFFFF" fill-rule="evenodd" xlink:href="#path-1"></use>
                        <circle stroke="#A90505" stroke-width="1" cx="12.5" cy="12.5" r="12"></circle>
                    </g>
                    <g id="Rectangle-4">
                        <use fill="#D8D8D8" fill-rule="evenodd" xlink:href="#path-2"></use>
                        <rect stroke="#A90505" stroke-width="1" x="12.5" y="4.5" width="1" height="8"></rect>
                    </g>
                    <g id="Rectangle-5" transform="translate(9.973076, 14.149519) rotate(-30.000000) translate(-9.973076, -14.149519) ">
                        <use fill="#D8D8D8" fill-rule="evenodd" xlink:href="#path-3"></use>
                        <rect stroke="#A90505" stroke-width="1" x="6.47307621" y="13.8995191" width="7" height="1"></rect>
                    </g>
                    <circle id="Oval-2" fill="#A90505" cx="12.5" cy="12.5" r="1.5"></circle>
                </g>
            </g>
        </g>
    </g>
</svg>